<?xml version="1.0" encoding="utf-8"?>
<!-- Generator: Adobe Illustrator 22.0.1, SVG Export Plug-In . SVG Version: 6.00 Build 0)  -->
<svg version="1.1" id="Capa_1" xmlns="http://www.w3.org/2000/svg" xmlns:xlink="http://www.w3.org/1999/xlink" x="0px" y="0px"
	 viewBox="0 0 200 174.8" style="enable-background:new 0 0 200 174.8;" xml:space="preserve">
<style type="text/css">
	.st0{fill:#FFFFFF;}
</style>
<g id="_x39_IFXCX_1_">
	<g>
		<path class="st0" d="M0.4,56c2.1-3.6,4.3-7.3,6.3-10.9c7.8-13.8,15.7-27.5,23.5-41.4c1.4-2.4,3.2-3.4,5.8-3.4
			c21.2,0,42.4,0,63.6,0c21.5,0,42.9,0,64.4,0c2.9,0,4.9,1,6.3,3.7c9.7,17.3,19.6,34.6,29.4,51.9c0,0.1,0.2,0.1,0.3,0.1
			c0,1.8,0,3.6,0,5.4c-0.6,0.8-0.5,1.9-0.8,2.8C197,72.6,192.1,79,184.3,83c-1.1,0.6-1.4,1.2-1.4,2.4c0,27.7,0,55.3,0,83
			c0,4.6-1.7,6.3-6.2,6.3c-51,0-101.9,0-152.9,0c-4.5,0-6.2-1.7-6.2-6.2c0-27.6,0-55.1,0-82.7c0-1.6-0.4-2.4-1.9-3.2
			C7.8,78.5,2.9,72,1,63.2c-0.1-0.6,0-1.4-0.6-1.8C0.4,59.6,0.4,57.8,0.4,56z M100.3,73.6c-0.2,0.2-0.2,0.2-0.3,0.2
			c-11.7,16.3-35,16.3-46.6,0.6c-0.6-0.9-0.9-0.6-1.4,0.1c-5.8,7.6-13.7,11.5-23.2,11.6c-1.3,0-1.5,0.4-1.5,1.6c0,9.9,0,19.9,0,29.9
			c0,15.1,0,30.3,0,45.4c0,1.7,0.5,2,2.1,2c4.5-0.1,9.1-0.1,13.6,0c1.5,0,1.8-0.4,1.8-1.9c-0.1-17.2-0.1-34.3,0-51.5
			c0-8,6.2-15.1,14.1-16.1c6.1-0.7,12.3-0.3,18.4-0.2c0.8,0,1.5,0.2,2.3,0.4c7.9,2,12.8,8.5,12.8,17c0,16.7,0,33.3,0,50
			c0,1.6,0.4,2,2,2c25.6-0.1,51.2-0.1,76.8,0c1.5,0,2-0.4,2-1.9c-0.1-25,0-50,0-75c0-1.5-0.3-1.8-1.8-1.9c-9.3-0.2-17-3.9-22.7-11.4
			c-0.9-1.1-1.1-1.1-1.9,0c-6.9,9.2-19,13.4-30,10.4C109.9,83.3,104.4,79.4,100.3,73.6z M185.6,51c-0.2-0.5-0.4-0.8-0.5-1.1
			c-7.3-12.9-14.6-25.7-21.9-38.6c-0.5-1-1.2-1.1-2.2-1.1c-40.6,0-81.2,0-121.7,0c-1.2,0-1.8,0.4-2.4,1.4
			c-7.1,12.6-14.2,25.2-21.4,37.7c-0.3,0.5-0.8,0.9-0.6,1.7C71.8,51,128.6,51,185.6,51z M82.6,137.7c0-8.4,0-16.9,0-25.3
			c0-4.4-3-7.3-7.4-7.3c-4.5,0-8.9,0-13.4,0c-4.3,0-7.3,3-7.3,7.2c0,17,0,34,0,51c0,1.3,0.4,1.6,1.6,1.6c8.3-0.1,16.7-0.1,25,0
			c1.4,0,1.7-0.4,1.6-1.7C82.6,154.7,82.6,146.2,82.6,137.7z M10.5,60.8c0.2,0.8,0.3,1.4,0.5,2.1c2.4,8.1,9.6,13.5,18,13.4
			c8.5,0,15.7-5.4,18.1-13.5c0.6-2,0.6-2-1.4-2c-11.2,0-22.3,0-33.5,0C11.7,60.8,11.2,60.8,10.5,60.8z M76.6,60.8
			c-5.8,0-11.5,0-17.3,0c-1.2,0-1.4,0.3-1.1,1.5c2.1,8.2,9.6,14.1,18.2,14.1c8.6,0,16.1-5.8,18.2-14.1c0.3-1.2,0.1-1.5-1.2-1.5
			C87.9,60.8,82.3,60.8,76.6,60.8z M123.9,60.8c-5.6,0-11.2,0.1-16.7,0c-1.7,0-1.8,0.5-1.4,1.9c2.3,8.1,9.7,13.7,18.2,13.7
			c8.5,0,15.9-5.7,18.1-13.9c0.4-1.3,0-1.6-1.3-1.6C135.2,60.8,129.6,60.8,123.9,60.8z M171.4,60.9c-5.7,0-11.4,0-17.1,0
			c-1.1,0-1.5,0.2-1.2,1.4c2,8.1,9.7,14.1,18.2,14.1c8.4,0,16.3-6.1,18.2-14c0.3-1.1,0.1-1.6-1.2-1.6
			C182.7,60.9,177.1,60.9,171.4,60.9z"/>
		<path class="st0" d="M128.7,95.3c4.4,0,8.7,0,13.1,0c7.9,0.1,13.7,5.7,13.9,13.6c0.1,7,0.1,14,0,21c-0.1,7-5.4,12.7-12.4,13.1
			c-9.8,0.5-19.6,0.5-29.3,0c-7-0.3-12.2-6.1-12.3-13.1c-0.1-6.9,0-13.9,0-20.8c0-7.9,5.7-13.6,13.6-13.7
			C119.8,95.3,124.2,95.3,128.7,95.3z M128.5,133.2c4.4,0,8.8,0,13.2,0c2.6,0,4.1-1.4,4.2-4c0.1-6.7,0.1-13.4,0-20.1
			c0-2.6-1.5-4.1-4.1-4.1c-8.8,0-17.5,0-26.3,0c-2.6,0-4,1.5-4,4.1c0,6.6,0,13.3,0,19.9c0,2.7,1.4,4.1,4.1,4.1
			C119.9,133.2,124.2,133.2,128.5,133.2z"/>
	</g>
</g>
</svg>
