<?xml version="1.0" encoding="utf-8"?>
<!-- Generator: Adobe Illustrator 17.0.0, SVG Export Plug-In . SVG Version: 6.00 Build 0)  -->
<!DOCTYPE svg PUBLIC "-//W3C//DTD SVG 1.1//EN" "http://www.w3.org/Graphics/SVG/1.1/DTD/svg11.dtd">
<svg version="1.1" id="Capa_1" xmlns="http://www.w3.org/2000/svg" xmlns:xlink="http://www.w3.org/1999/xlink" x="0px" y="0px"
	 width="17px" height="17px" viewBox="0 0 17 17" enable-background="new 0 0 17 17" xml:space="preserve">
<g>
	<g>
		<path fill="#C62F33" d="M13.626,2.09h-2.619c-0.131-1.133-1.094-2.016-2.262-2.016c-1.167,0-2.131,0.883-2.261,2.016H3.865
			c-1.06,0-1.922,0.862-1.922,1.922v0.099c0,0.81,0.504,1.503,1.215,1.785v9.079c0,1.06,0.862,1.922,1.922,1.922h7.331
			c1.06,0,1.922-0.862,1.922-1.922V5.896c0.71-0.282,1.215-0.976,1.215-1.785V4.012C15.547,2.952,14.685,2.09,13.626,2.09z
			 M8.745,0.986c0.664,0,1.218,0.476,1.341,1.104H7.405C7.528,1.462,8.082,0.986,8.745,0.986z M13.421,14.975
			c0,0.557-0.453,1.011-1.01,1.011H5.08c-0.557,0-1.01-0.453-1.01-1.011V6.033h9.352V14.975z M14.636,4.111
			c0,0.557-0.453,1.011-1.01,1.011h-9.76c-0.557,0-1.01-0.453-1.01-1.011V4.012c0-0.557,0.453-1.011,1.01-1.011h9.76
			c0.557,0,1.01,0.453,1.01,1.011L14.636,4.111L14.636,4.111z"/>
		<path fill="#C62F33" d="M6.302,14.82c0.252,0,0.456-0.204,0.456-0.456V9.233c0-0.252-0.204-0.456-0.456-0.456
			c-0.252,0-0.456,0.204-0.456,0.456v5.131C5.846,14.616,6.05,14.82,6.302,14.82z"/>
		<path fill="#C62F33" d="M8.745,14.82c0.252,0,0.456-0.204,0.456-0.456V9.233c0-0.252-0.204-0.456-0.456-0.456
			c-0.252,0-0.456,0.204-0.456,0.456v5.131C8.29,14.616,8.494,14.82,8.745,14.82z"/>
		<path fill="#C62F33" d="M11.189,14.82c0.252,0,0.456-0.204,0.456-0.456V9.233c0-0.252-0.204-0.456-0.456-0.456
			c-0.252,0-0.456,0.204-0.456,0.456v5.131C10.733,14.616,10.937,14.82,11.189,14.82z"/>
	</g>
</g>
</svg>
