<?xml version="1.0" encoding="utf-8"?>
<!-- Generator: Adobe Illustrator 17.0.0, SVG Export Plug-In . SVG Version: 6.00 Build 0)  -->
<!DOCTYPE svg PUBLIC "-//W3C//DTD SVG 1.1//EN" "http://www.w3.org/Graphics/SVG/1.1/DTD/svg11.dtd">
<svg version="1.1" id="Capa_1" xmlns="http://www.w3.org/2000/svg" xmlns:xlink="http://www.w3.org/1999/xlink" x="0px" y="0px"
	 width="35px" height="35px" viewBox="0 0 35 35" enable-background="new 0 0 35 35" xml:space="preserve">
<g>
	<path fill="#42B27F" d="M27.201,28.354h-2.02c-0.496,0-0.897-0.402-0.897-0.897c0-0.496,0.402-0.897,0.897-0.897h2.02
		c2.969,0,5.383-2.415,5.383-5.383c0-2.928-2.383-5.341-5.311-5.379c-0.483-0.006-0.874-0.393-0.885-0.876
		c-0.109-4.537-3.89-8.228-8.429-8.228c-3.731,0-6.972,2.395-8.064,5.96c-0.114,0.372-0.454,0.628-0.843,0.634
		c-3.598,0.061-6.526,3.037-6.526,6.633c0,3.661,2.979,6.64,6.64,6.64h1.422c0.495,0,0.897,0.402,0.897,0.897
		c0,0.495-0.402,0.897-0.897,0.897H9.166c-4.651,0-8.434-3.783-8.434-8.434c0-4.354,3.377-7.992,7.651-8.392
		c1.492-3.991,5.264-6.629,9.577-6.629c5.23,0,9.63,4.041,10.17,9.164c3.514,0.46,6.249,3.492,6.249,7.114
		C34.379,25.133,31.159,28.354,27.201,28.354"/>
	<path fill="#42B27F" d="M16.196,23.77c0,0.398,0.326,0.723,0.723,0.723h1.929c0.398,0,0.723-0.326,0.723-0.723v-7.847
		c0-0.398-0.326-0.723-0.723-0.723H16.92c-0.398,0-0.723,0.326-0.723,0.723V23.77z"/>
	<path fill="#42B27F" d="M12.049,22.7c-0.438,0-0.577,0.284-0.31,0.63l5.659,7.342c0.267,0.347,0.704,0.347,0.971,0l5.659-7.342
		c0.267-0.347,0.128-0.63-0.31-0.63H12.049z"/>
</g>
</svg>
