<?xml version="1.0" encoding="utf-8"?>
<!-- Generator: Adobe Illustrator 17.0.0, SVG Export Plug-In . SVG Version: 6.00 Build 0)  -->
<!DOCTYPE svg PUBLIC "-//W3C//DTD SVG 1.1//EN" "http://www.w3.org/Graphics/SVG/1.1/DTD/svg11.dtd">
<svg version="1.1" id="Capa_1" xmlns="http://www.w3.org/2000/svg" xmlns:xlink="http://www.w3.org/1999/xlink" x="0px" y="0px"
	 width="23px" height="23px" viewBox="0 0 23 23" enable-background="new 0 0 23 23" xml:space="preserve">
<g>
	<path fill="#AEAEAE" d="M19.722,2.686L2.983,8.853C2.478,9.039,2.488,9.307,3.007,9.452l7.289,2.036
		c0.519,0.145,1.057,0.683,1.201,1.201l2.036,7.289c0.145,0.519,0.413,0.53,0.599,0.024L20.3,3.264
		C20.486,2.758,20.227,2.499,19.722,2.686 M16.833,5.176l-4.947,4.947c-0.19,0.19-0.555,0.286-0.814,0.213L6.516,9.063
		c-0.259-0.073-0.265-0.207-0.012-0.3L16.72,5C16.973,4.906,17.023,4.985,16.833,5.176"/>
</g>
</svg>
