<?xml version="1.0" encoding="utf-8"?>
<!-- Generator: Adobe Illustrator 17.0.0, SVG Export Plug-In . SVG Version: 6.00 Build 0)  -->
<!DOCTYPE svg PUBLIC "-//W3C//DTD SVG 1.1//EN" "http://www.w3.org/Graphics/SVG/1.1/DTD/svg11.dtd">
<svg version="1.1" id="Capa_1" xmlns="http://www.w3.org/2000/svg" xmlns:xlink="http://www.w3.org/1999/xlink" x="0px" y="0px"
	 width="35px" height="30px" viewBox="0 0 35 30" enable-background="new 0 0 35 30" xml:space="preserve">
<g>
	<path fill="#616261" d="M32,25.376H3c-1.003,0-1.819-0.816-1.819-1.819V2.403c0-1.003,0.816-1.819,1.819-1.819H32
		c1.003,0,1.819,0.816,1.819,1.819v21.154C33.818,24.56,33.003,25.376,32,25.376 M3.351,23.207h28.297V2.754H3.351V23.207z"/>
	<polygon fill="#616261" points="24.893,29.415 23.673,26.845 11.327,26.845 10.107,29.415 	"/>
	<polygon fill="#616261" points="15.054,6.466 21.231,10.032 15.054,13.598 	"/>
	<path fill="#616261" d="M11.893,17.413c0,1.162-0.942,2.104-2.103,2.104c-1.162,0-2.104-0.942-2.104-2.104
		c0-1.161,0.942-2.103,2.104-2.103C10.951,15.31,11.893,16.252,11.893,17.413"/>
	<rect x="2.267" y="20.609" fill="#616261" width="30.467" height="3.683"/>
	<rect x="14.717" y="24.821" fill="#616261" width="5.472" height="2.343"/>
</g>
</svg>
