<?xml version="1.0" encoding="utf-8"?>
<!-- Generator: Adobe Illustrator 17.0.0, SVG Export Plug-In . SVG Version: 6.00 Build 0)  -->
<!DOCTYPE svg PUBLIC "-//W3C//DTD SVG 1.1//EN" "http://www.w3.org/Graphics/SVG/1.1/DTD/svg11.dtd">
<svg version="1.1" id="Capa_1" xmlns="http://www.w3.org/2000/svg" xmlns:xlink="http://www.w3.org/1999/xlink" x="0px" y="0px"
	 width="23px" height="23px" viewBox="0 0 23 23" enable-background="new 0 0 23 23" xml:space="preserve">
<g>
	<path fill="#AEAEAE" d="M20.035,2.821h-2.99v0.363c0.225,0.29,0.361,0.654,0.361,1.049c0,0.946-0.767,1.714-1.714,1.714
		c-0.947,0-1.714-0.767-1.714-1.714c0-0.396,0.136-0.759,0.361-1.049V2.821H8.662v0.363c0.225,0.29,0.361,0.654,0.361,1.049
		c0,0.946-0.767,1.714-1.714,1.714c-0.946,0-1.714-0.767-1.714-1.714c0-0.396,0.136-0.759,0.361-1.049V2.821h-2.99
		C2.377,2.821,1.9,3.298,1.9,3.886v17.218c0,0.588,0.477,1.065,1.065,1.065h17.069c0.588,0,1.065-0.477,1.065-1.065V3.886
		C21.1,3.298,20.623,2.821,20.035,2.821 M20.035,21.104H2.965V8.652h17.069V21.104z"/>
	<path fill="#AEAEAE" d="M7.309,4.78c-0.512,0-0.927-0.415-0.927-0.927V1.788c0-0.512,0.415-0.927,0.927-0.927
		c0.512,0,0.927,0.415,0.927,0.927v2.066C8.236,4.365,7.82,4.78,7.309,4.78"/>
	<path fill="#AEAEAE" d="M15.691,4.78c-0.512,0-0.927-0.415-0.927-0.927V1.788c0-0.512,0.415-0.927,0.927-0.927
		s0.927,0.415,0.927,0.927v2.066C16.618,4.365,16.203,4.78,15.691,4.78"/>
	<rect x="7.453" y="10.157" fill="#AEAEAE" width="2.127" height="1.718"/>
	<rect x="10.437" y="10.157" fill="#AEAEAE" width="2.127" height="1.718"/>
	<rect x="13.42" y="10.157" fill="#AEAEAE" width="2.127" height="1.718"/>
	<rect x="16.403" y="10.157" fill="#AEAEAE" width="2.127" height="1.718"/>
	<rect x="4.47" y="12.732" fill="#AEAEAE" width="2.127" height="1.718"/>
	<rect x="7.453" y="12.732" fill="#AEAEAE" width="2.127" height="1.718"/>
	<rect x="10.437" y="12.732" fill="#AEAEAE" width="2.127" height="1.718"/>
	<rect x="13.42" y="12.732" fill="#AEAEAE" width="2.127" height="1.718"/>
	<rect x="16.403" y="12.732" fill="#AEAEAE" width="2.127" height="1.718"/>
	<rect x="4.47" y="15.306" fill="#AEAEAE" width="2.127" height="1.718"/>
	<rect x="7.453" y="15.306" fill="#AEAEAE" width="2.127" height="1.718"/>
	<rect x="10.437" y="15.306" fill="#AEAEAE" width="2.127" height="1.718"/>
	<rect x="13.42" y="15.306" fill="#AEAEAE" width="2.127" height="1.718"/>
	<rect x="16.403" y="15.306" fill="#AEAEAE" width="2.127" height="1.718"/>
	<rect x="4.47" y="17.881" fill="#AEAEAE" width="2.127" height="1.718"/>
	<rect x="7.453" y="17.881" fill="#AEAEAE" width="2.127" height="1.718"/>
</g>
<path fill-rule="evenodd" clip-rule="evenodd" fill="none" d="M91.805,27.857l6.999,6.911l6.999-6.911"/>
</svg>
