<?xml version="1.0" encoding="utf-8"?>
<!-- Generator: Adobe Illustrator 16.0.0, SVG Export Plug-In . SVG Version: 6.00 Build 0)  -->
<!DOCTYPE svg PUBLIC "-//W3C//DTD SVG 1.1//EN" "http://www.w3.org/Graphics/SVG/1.1/DTD/svg11.dtd">
<svg version="1.1" id="Layer_2" xmlns="http://www.w3.org/2000/svg" xmlns:xlink="http://www.w3.org/1999/xlink" x="0px" y="0px"
	 width="24px" height="72px" viewBox="0 0 24 72" enable-background="new 0 0 24 72" xml:space="preserve">
<path fill="#0A6242" d="M16.712,32.546l-5.306,5.305l-2.593-2.593c-0.478-0.478-1.253-0.478-1.729,0
	c-0.479,0.477-0.479,1.253,0,1.73l3.457,3.459c0.239,0.237,0.553,0.358,0.866,0.358s0.626-0.119,0.864-0.358l6.171-6.172
	c0.478-0.478,0.478-1.252,0-1.73C17.964,32.068,17.19,32.068,16.712,32.546"/>
</svg>
