<?xml version="1.0" encoding="utf-8"?>
<!-- Generator: Adobe Illustrator 17.0.0, SVG Export Plug-In . SVG Version: 6.00 Build 0)  -->
<!DOCTYPE svg PUBLIC "-//W3C//DTD SVG 1.1//EN" "http://www.w3.org/Graphics/SVG/1.1/DTD/svg11.dtd">
<svg version="1.1" id="Capa_1" xmlns="http://www.w3.org/2000/svg" xmlns:xlink="http://www.w3.org/1999/xlink" x="0px" y="0px"
	 width="35px" height="35px" viewBox="0 0 35 35" enable-background="new 0 0 35 35" xml:space="preserve">
<g>
	<path fill="#FFFFFF" d="M25.121,13.563l0.003-5.127c0-4.324-3.518-7.843-7.843-7.843s-7.843,3.52-7.843,7.843l-0.003,5.127
		c-2.166,0-3.922,1.756-3.922,3.921L5.512,29.84c0,2.166,1.985,3.937,4.151,3.937h15.686c2.166,0,3.683-1.787,3.683-3.953
		l0.01-12.339C29.042,15.319,27.286,13.563,25.121,13.563 M18.486,23.018l0.612,3.243c0,0.542-3.183,0.541-3.183,0l0.611-3.243
		c-0.575-0.341-0.981-0.942-0.981-1.66c0-1.084,0.878-1.961,1.961-1.961s1.961,0.877,1.961,1.961
		C19.467,22.076,19.062,22.677,18.486,23.018 M21.199,13.563h-7.844l0.003-5.127c0-2.164,1.759-3.922,3.922-3.922
		c2.162,0,3.921,1.758,3.921,3.922L21.199,13.563z"/>
</g>
</svg>
