<?xml version="1.0" encoding="utf-8"?>
<!-- Generator: Adobe Illustrator 17.0.0, SVG Export Plug-In . SVG Version: 6.00 Build 0)  -->
<!DOCTYPE svg PUBLIC "-//W3C//DTD SVG 1.1//EN" "http://www.w3.org/Graphics/SVG/1.1/DTD/svg11.dtd">
<svg version="1.1" id="Capa_1" xmlns="http://www.w3.org/2000/svg" xmlns:xlink="http://www.w3.org/1999/xlink" x="0px" y="0px"
	 width="35px" height="35px" viewBox="0 0 35 35" enable-background="new 0 0 35 35" xml:space="preserve">
<g>
	<g>
		<path fill="#42B27F" d="M26.557,22.605v1.827h-3.27v-1.827H12.42v1.827h-3.27v-1.827H3.501l-1.659-2.944v9.378
			c0,0.607,0.493,1.163,1.1,1.163h29.271c0.606,0,1.075-0.555,1.075-1.163v-9.377l-1.668,2.942H26.557z"/>
		<path fill="#42B27F" d="M32.215,8.468H2.944c-0.607,0-1.102,0.519-1.102,1.126v8.288l2.167,3.857h5.141v-2.212h3.27v2.212h10.867
			v-2.212h3.27v2.212h4.55l2.181-3.855v-8.29C33.288,8.987,32.822,8.468,32.215,8.468"/>
	</g>
	<g>
		<defs>
			<path id="SVGID_1_" d="M12.733,5.102c-0.201,0-0.312,0.202-0.312,0.403v2.578h1.346V6.943c0-0.147,0.126-0.302,0.273-0.302h7.08
				c0.147,0,0.245,0.155,0.245,0.302v1.141h1.442V5.505c0-0.201-0.178-0.403-0.379-0.403H12.733z"/>
		</defs>
		<use xlink:href="#SVGID_1_"  overflow="visible" fill="#42B27F"/>
		<clipPath id="SVGID_2_">
			<use xlink:href="#SVGID_1_"  overflow="visible"/>
		</clipPath>
		<rect x="12.42" y="5.102" clip-path="url(#SVGID_2_)" fill="#42B27F" width="10.386" height="2.981"/>
	</g>
	<g>
		<defs>
			<rect id="SVGID_3_" x="9.824" y="20.297" width="1.827" height="3.654"/>
		</defs>
		<use xlink:href="#SVGID_3_"  overflow="visible" fill="#42B27F"/>
		<clipPath id="SVGID_4_">
			<use xlink:href="#SVGID_3_"  overflow="visible"/>
		</clipPath>
		<rect x="9.824" y="20.297" clip-path="url(#SVGID_4_)" fill="#42B27F" width="1.827" height="3.654"/>
	</g>
	<g>
		<defs>
			<rect id="SVGID_5_" x="23.96" y="20.297" width="1.731" height="3.654"/>
		</defs>
		<use xlink:href="#SVGID_5_"  overflow="visible" fill="#42B27F"/>
		<clipPath id="SVGID_6_">
			<use xlink:href="#SVGID_5_"  overflow="visible"/>
		</clipPath>
		<rect x="23.96" y="20.297" clip-path="url(#SVGID_6_)" fill="#42B27F" width="1.731" height="3.654"/>
	</g>
</g>
</svg>
