<svg xmlns="http://www.w3.org/2000/svg" width="24.615" height="20" viewBox="0 0 24.615 20">
  <g id="Grupo_2275" data-name="Grupo 2275" transform="translate(-517.829 -73.431)">
    <path id="Trazado_1649" data-name="Trazado 1649" d="M541.675,73.431H518.6a.769.769,0,0,0-.769.769V92.662a.769.769,0,0,0,.769.769h23.077a.769.769,0,0,0,.769-.769V74.2A.769.769,0,0,0,541.675,73.431Zm-.769,1.538v9.457l-5.841-2.6a.772.772,0,0,0-.83.134l-5.694,5.177-4.932-2.959a.767.767,0,0,0-.858.044l-3.385,2.538V74.969ZM519.367,91.893V88.687l3.894-2.921,4.091,2.455-1.578,1.435a.769.769,0,1,0,1.035,1.138l2.344-2.13h0L534.9,83.44l6.008,2.67v5.782Z" fill="#575757"/>
    <path id="Trazado_1650" data-name="Trazado 1650" d="M528.021,84.149a2.692,2.692,0,1,0-2.692-2.692A2.7,2.7,0,0,0,528.021,84.149Zm0-3.846a1.154,1.154,0,1,1-1.154,1.154A1.155,1.155,0,0,1,528.021,80.3Z" transform="translate(-1.731 -1.231)" fill="#575757"/>
  </g>
</svg>
