{
  "region": "us-east-1",
  "ecr_repository_name": "checklist-franquicia-dev",
  "cluster": "SERVICIOS-INTERNOS-DEV-CLUSTER",
  "service": "SRV-CHECKLIST-DEV",
  "family": "task-checklist-franquicia-dev"
}
