<?xml version="1.0" encoding="utf-8"?>
<!-- Generator: Adobe Illustrator 22.0.1, SVG Export Plug-In . SVG Version: 6.00 Build 0)  -->
<svg version="1.1" id="Layer_1" xmlns="http://www.w3.org/2000/svg" xmlns:xlink="http://www.w3.org/1999/xlink" x="0px" y="0px"
	 viewBox="0 0 200 200" style="enable-background:new 0 0 200 200;" xml:space="preserve">
<style type="text/css">
	.st0{fill:#0E6142;}
	.st1{fill:#FFFFFF;}
</style>
<path class="st1" d="M192.9,5h-77c-1.8,0-3.2,1.4-3.2,3.2v19.5c-9.2,1.6-16,9.6-16,19v48.1h-9.6V72.3c0-1.8-1.4-3.2-3.2-3.2h-77
	c-1.8,0-3.2,1.4-3.2,3.2v51.3c0,1.8,1.4,3.2,3.2,3.2h77c1.8,0,3.2-1.4,3.2-3.2v-22.4h9.6v51.3c0,9.4,6.8,17.4,16,19v16.3
	c0,1.8,1.4,3.2,3.2,3.2h77c1.8,0,3.2-1.4,3.2-3.2v-51.3c0-1.8-1.4-3.2-3.2-3.2h-77c-1.8,0-3.2,1.4-3.2,3.2v28.4
	c-5.6-1.5-9.6-6.5-9.6-12.4v-51.3h9.6v22.4c0,1.8,1.4,3.2,3.2,3.2h77c1.8,0,3.2-1.4,3.2-3.2V72.3c0-1.8-1.4-3.2-3.2-3.2h-77
	c-1.8,0-3.2,1.4-3.2,3.2v22.4h-9.6V46.7c0-5.8,4-10.9,9.6-12.4v25.2c0,1.8,1.4,3.2,3.2,3.2h77c1.8,0,3.2-1.4,3.2-3.2V8.2
	C196.1,6.4,194.7,5,192.9,5z M80.7,120.4H10.1V75.6h70.6V120.4z M119.2,139.7h70.6v44.9h-70.6V139.7z M119.2,75.6h70.6v44.9h-70.6
	V75.6z M189.7,56.3h-70.6V11.4h70.6V56.3z"/>
</svg>
