<?xml version="1.0" encoding="iso-8859-1"?>
<!-- Generator: Adobe Illustrator 21.0.1, SVG Export Plug-In . SVG Version: 6.00 Build 0)  -->
<svg version="1.1" id="Capa_1" xmlns="http://www.w3.org/2000/svg" xmlns:xlink="http://www.w3.org/1999/xlink" x="0px" y="0px"
	 viewBox="0 0 24 24" style="enable-background:new 0 0 24 24;" xml:space="preserve">
<g>
	<polygon style="fill:#29C19A;" points="15,20 19,16 15,16 	"/>
	<path style="fill:#29C19A;" d="M5,4v16h9.012L14,15l5,0.023V4H5z M17,13H7v-1h10V13z M17,11H7v-1h10V11z M17,9H7V8h10V9z"/>
</g>
</svg>
