<?xml version="1.0" encoding="iso-8859-1"?>
<!-- Generator: Adobe Illustrator 21.0.1, SVG Export Plug-In . SVG Version: 6.00 Build 0)  -->
<svg version="1.1" id="Capa_1" xmlns="http://www.w3.org/2000/svg" xmlns:xlink="http://www.w3.org/1999/xlink" x="0px" y="0px"
	 viewBox="0 0 24 24" style="enable-background:new 0 0 24 24;" xml:space="preserve">
<g>
	<path style="fill:#FFFFFF;" d="M10.537,13.501c-0.965-0.962-2.527-0.961-3.491,0.003c-0.205,0.205-0.356,0.44-0.474,0.687
		c-0.387,0.656-0.525,1.438-0.354,2.197c0.11,1.48-2.276,3.425-2.276,3.425c2.517,1.102,5.851-2.137,6.236-2.524
		c0.126-0.086,0.248-0.182,0.359-0.294c0.964-0.964,0.964-2.527,0-3.492L10.537,13.501z"/>
	
		<rect x="9.574" y="7.424" transform="matrix(0.7072 -0.7071 0.7071 0.7072 -1.8891 13.286)" style="fill:#FFFFFF;" width="11.04" height="3"/>
</g>
</svg>
